Season;Name;Dry;Wet;Peak;Durability;Warmup; Cost 
17;Pipirelli;4;2;34;1;6; 250.000 
17;Yokomama;6;4;30;2;4; 1.500.000 
17;Dunnolop;5;4;20;6;4; 2.100.000 
17;Badyear;4;5;18;4;7; 2.800.000 
17;Michelini;7;3;24;6;3; 4.400.000 
17;Bridgerock;6;6;31;5;5; 5.000.000 
18;Pipirelli;3;2;34;1;6; 250.000 
18;Yokomama;4;4;30;2;5; 1.500.000 
18;Dunnolop;5;4;20;6;4; 2.100.000 
18;Badyear;5;6;18;4;6; 2.800.000 
18;Michelini;7;3;24;6;3; 4.700.000 
18;Bridgerock;6;5;29;5;5; 5.000.000 
19;Pipirelli;3;2;34;1;7; 250.000 
19;Yokomama;4;4;30;2;5; 1.500.000 
19;Dunnolop;5;4;19;4;4; 2.300.000 
19;Badyear;5;6;18;4;6; 2.800.000 
19;Bridgerock;6;5;29;5;5; 4.400.000 
19;Michelini;7;3;24;6;3; 5.000.000 
20;Pipirelli;3;2;34;1;7; 250.000 
20;Yokomama;4;4;30;2;5; 1.500.000 
20;Dunnolop;5;4;19;4;4; 2.300.000 
20;Badyear;5;7;18;5;6; 2.800.000 
20;Bridgerock;6;6;29;5;5; 4.400.000 
20;Michelini;7;3;24;6;3; 5.000.000 
21;Pipirelli;3;2;34;1;7; 250.000 
21;Yokomama;4;4;25;2;5; 1.500.000 
21;Dunnolop;5;3;19;4;4; 2.300.000 
21;Badyear;5;7;18;5;6; 2.800.000 
21;Bridgerock;7;6;29;5;5; 4.400.000 
21;Michelini;7;3;24;6;3; 5.000.000 
22;Pipirelli;3;2;34;1;7; 250.000 
22;Yokomama;4;4;25;2;5; 1.500.000 
22;Dunnolop;5;3;19;4;4; 2.300.000 
22;Badyear;5;7;18;5;6; 2.800.000 
22;Bridgerock;7;6;29;5;5; 4.400.000 
22;Michelini;6;3;24;6;2; 5.400.000 
23;Pipirelli;3;2;34;1;7; 250.000 
23;Yokomama;4;4;25;2;4; 1.500.000 
23;Dunnolop;5;3;19;4;4; 2.300.000 
23;Badyear;5;7;18;5;6; 2.800.000 
23;Bridgerock;8;6;29;6;5; 4.600.000 
23;Michelini;6;3;24;5;1; 6.000.000 
24;Pipirelli;3;2;34;1;7; 250.000 
24;Yokomama;4;4;25;2;5; 1.500.000 
24;Dunnolop;5;3;19;4;4; 2.300.000 
24;Badyear;5;7;18;5;6; 2.800.000 
24;Bridgerock;8;6;29;5;5; 4.600.000 
24;Michelini;6;3;24;6;2; 5.600.000 
25;Pipirelli;3;2;34;1;7; 250.000 
25;Yokomama;4;4;25;2;4; 1.500.000 
25;Dunnolop;5;3;19;4;4; 2.300.000 
25;Badyear;5;7;18;5;6; 2.800.000 
25;Bridgerock;8;6;29;5;5; 4.600.000 
25;Michelini;6;3;24;6;2; 5.800.000 
26;Pipirelli;3;2;34;1;7; 250.000 
26;Yokomama;4;4;25;2;4; 1.500.000 
26;Dunnolop;5;3;19;4;4; 2.300.000 
26;Badyear;5;7;18;7;6; 3.000.000 
26;Michelini;6;3;24;5;1; 5.300.000 
26;Bridgerock;8;6;29;6;5; 6.000.000 
27;Pipirelli;3;2;34;1;7; 250.000 
27;Yokomama;4;4;25;2;4; 1.500.000 
27;Dunnolop;5;3;19;4;5; 2.300.000 
27;Badyear;5;7;18;7;6; 3.000.000 
27;Bridgerock;8;6;29;6;5; 6.000.000 
27;Michelini;6;3;24;5;1; 6.100.000 
28;Pipirelli;3;2;34;1;7; 250.000 
28;Yokomama;4;4;25;2;4; 1.500.000 
28;Dunnolop;5;3;19;4;5; 2.300.000 
28;Badyear;5;7;18;7;6; 3.000.000 
28;Bridgerock;8;6;29;6;5; 6.300.000 
28;Michelini;6;3;24;5;1; 6.500.000 
29;Pipirelli;3;2;34;1;7; 250.000 
29;Yokomama;4;4;25;2;4; 1.500.000 
29;Dunnolop;5;3;19;4;5; 2.300.000 
29;Badyear;5;7;18;7;6; 3.000.000 
29;Michelini;6;3;24;5;1; 6.500.000 
29;Bridgerock;8;6;29;6;5; 6.700.000 
30;Pipirelli;3;2;34;1;7; 250.000 
30;Yokomama;4;4;25;2;4; 1.500.000 
30;Dunnolop;5;3;19;4;5; 2.300.000 
30;Badyear;5;7;18;7;6; 3.000.000 
30;Michelini;6;3;24;5;1; 6.500.000 
30;Bridgerock;8;6;31;6;5; 6.900.000 
31;Pipirelli;3;2;34;1;7; 250.000 
31;Yokomama;4;4;25;2;4; 1.500.000 
31;Dunnolop;5;3;19;4;5; 2.300.000 
31;Badyear;5;7;18;7;6; 3.500.000 
31;Michelini;6;3;24;5;1; 6.700.000 
31;Bridgerock;8;6;31;6;5; 7.000.000 
32;Pipirelli;3;2;34;1;7; 250.000 
32;Yokomama;4;4;25;2;4; 1.500.000 
32;Dunnolop;5;3;19;4;5; 2.200.000 
32;Badyear;5;7;18;7;6; 3.600.000 
32;Michelini;7;3;24;5;1; 6.700.000 
32;Bridgerock;8;6;31;6;5; 7.000.000 
33;Pipirelli;3;2;34;1;7; 250.000 
33;Yokomama;4;4;25;2;4; 1.500.000 
33;Dunnolop;5;3;19;4;5; 2.200.000 
33;Badyear;4;7;18;7;6; 3.600.000 
33;Michelini;7;3;24;5;1; 6.700.000 
33;Bridgerock;8;6;31;6;5; 7.000.000 
34;Pipirelli;3;2;34;1;7; 250.000 
34;Yokomama;4;4;25;2;4; 1.500.000 
34;Dunnolop;5;3;19;4;5; 2.200.000 
34;Badyear;4;7;18;7;6; 3.600.000 
34;Michelini;7;3;24;5;1; 6.200.000 
34;Bridgerock;8;6;31;6;5; 7.000.000 
35;Pipirelli;3;2;34;1;7; 250.000 
35;Yokomama;4;4;25;2;4; 1.500.000 
35;Dunnolop;5;3;19;4;5; 2.200.000 
35;Badyear;4;7;18;7;6; 3.800.000 
35;Michelini;7;3;24;5;1; 5.900.000 
35;Bridgerock;8;6;32;6;5; 7.000.000 
36;Pipirelli;3;2;34;1;7; 250.000 
36;Yokomama;4;4;25;2;4; 1.500.000 
36;Dunnolop;5;3;19;4;5; 2.200.000 
36;Badyear;4;7;18;7;6; 3.800.000 
36;Michelini;7;3;24;5;1; 6.000.000 
36;Bridgerock;8;6;32;6;5; 7.000.000 
37;Pipirelli;3;2;34;1;7; 250.000 
37;Yokomama;4;4;25;2;4; 1.500.000 
37;Dunnolop;5;3;19;4;5; 2.200.000 
37;Badyear;4;7;18;7;6; 3.800.000 
37;Michelini;7;3;24;5;1; 6.000.000 
37;Bridgerock;8;6;32;6;5; 7.000.000 
38;Pipirelli;3;2;34;1;7; 250.000 
38;Yokomama;4;4;25;2;4; 1.500.000 
38;Dunnolop;5;3;19;4;5; 2.200.000 
38;Badyear;4;7;18;7;6; 3.800.000 
38;Michelini;7;3;24;5;1; 6.000.000 
38;Bridgerock;8;6;32;6;5; 7.000.000 
39;Pipirelli;3;2;34;1;7; 250.000 
39;Avonn;3;3;23;8;3; 1.000.000 
39;Yokomama;4;4;25;2;4; 1.500.000 
39;Dunnolop;5;3;19;4;5; 2.200.000 
39;Contimental;7;1;38;8;8; 2.500.000 
39;Badyear;4;8;18;7;6; 3.600.000 
39;Hancock;8;2;12;1;1; 4.500.000 
39;Michelini;7;3;24;5;1; 6.000.000 
39;Bridgerock;8;6;32;6;5; 7.000.000 
40;Pipirelli;3;2;34;1;7;250.000
40;Yokomama;4;4;25;2;4;1.500.000
40;Dunnolop;5;3;19;4;5;2.200.000
40;Badyear;4;8;18;7;6;3.600.000
40;Michelini;7;3;24;5;2;6.800.000
40;Bridgerock;8;6;32;7;5;7.000.000
40;Hancock;8;2;12;1;1;4.500.000
40;Contimental;7;1;38;8;8;2.500.000
40;Avonn;2;3;23;8;3;1.000.000
41;Pipirelli;3;2;34;1;7;250.000
41;Yokomama;4;4;25;2;4;1.500.000
41;Dunnolop;5;3;19;4;5;2.200.000
41;Badyear;4;8;18;7;6;3.600.000
41;Michelini;7;3;24;5;2;6.800.000
41;Bridgerock;8;6;32;7;5;7.000.000
41;Hancock;8;2;12;1;1;4.500.000
41;Contimental;7;1;38;8;8;2.500.000
41;Avonn;2;3;23;8;3;1.000.000
41;Pipirelli;3;2;34;1;7;250.000
41;Yokomama;4;4;25;2;4;1.500.000
41;Dunnolop;5;3;19;4;5;2.200.000
41;Badyear;4;8;18;7;6;3.600.000
41;Michelini;7;3;24;5;2;6.800.000
41;Bridgerock;8;6;32;7;5;7.000.000
41;Hancock;8;2;12;1;1;4.500.000
41;Contimental;7;1;38;8;8;2.500.000
41;Avonn;2;3;23;8;3;1.000.000
42;Pipirelli;3;2;34;1;7;250.000
42;Yokomama;4;4;25;3;4;1.500.000
42;Dunnolop;5;3;19;4;5;2.200.000
42;Badyear;4;8;18;7;6;3.600.000
42;Michelini;7;3;24;5;2;6.800.000
42;Bridgerock;8;6;32;7;5;7.000.000
42;Hancock;8;2;12;1;1;4.500.000
42;Contimental;7;1;38;8;8;2.500.000
42;Avonn;2;3;23;8;3;1.000.000
43;Pipirelli;3;2;34;1;7;250.000
43;Yokomama;4;4;25;3;4;1.500.000
43;Dunnolop;5;3;19;4;5;2.200.000
43;Badyear;4;8;18;7;6;3.600.000
43;Michelini;7;3;24;5;2;6.800.000
43;Bridgerock;8;6;32;7;5;7.000.000
43;Hancock;8;2;12;1;1;5.000.000
43;Contimental;7;1;38;8;8;2.300.000
43;Avonn;2;3;23;8;3;1.000.000
44;Pipirelli;3;2;34;1;7;250.000
44;Yokomama;4;4;25;3;4;1.500.000
44;Dunnolop;5;3;19;4;5;2.200.000
44;Badyear;4;8;18;7;6;3.600.000
44;Michelini;7;3;24;5;2;6.800.000
44;Bridgerock;8;6;32;7;5;7.000.000
44;Hancock;8;2;12;1;1;5.600.000
44;Contimental;7;1;38;8;8;2.300.000
44;Avonn;2;3;23;8;3;1.000.000
45;Pipirelli;3;2;34;1;7;250.000
45;Yokomama;4;4;25;3;4;1.500.000
45;Dunnolop;5;3;19;4;5;2.200.000
45;Badyear;4;8;18;7;6;3.600.000
45;Michelini;7;3;24;5;2;6.800.000
45;Bridgerock;8;6;32;7;5;7.000.000
45;Hancock;8;2;12;1;1;6.000.000
45;Contimental;7;1;38;8;8;2.300.000
45;Avonn;2;3;23;8;3;1.000.000
46;Pipirelli;3;2;34;1;7;250.000
46;Yokomama;4;4;25;3;4;1.500.000
46;Dunnolop;5;3;19;4;5;2.200.000
46;Badyear;4;8;18;7;6;3.600.000
46;Michelini;7;3;24;5;2;6.800.000
46;Bridgerock;8;6;32;7;5;7.000.000
46;Hancock;8;2;12;1;1;6.500.000
46;Contimental;7;1;38;8;8;2.300.000
46;Avonn;2;3;23;8;3;1.000.000
47;Pipirelli;3;2;34;1;7;250.000
47;Yokomama;4;4;25;3;4;1.500.000
47;Dunnolop;5;3;19;4;5;2.200.000
47;Badyear;4;8;18;7;6;3.600.000
47;Michelini;7;3;24;5;2;6.900.000
47;Bridgerock;8;6;32;7;5;7.000.000
47;Hancock;8;2;12;1;1;6.600.000
47;Contimental;7;1;38;8;8;2.300.000
47;Avonn;2;3;23;8;3;1.200.000
48;Pipirelli;3;2;34;1;7;250.000
48;Yokomama;4;4;25;3;4;1.500.000
48;Dunnolop;5;3;19;4;5;2.200.000
48;Badyear;4;8;18;7;6;3.600.000
48;Michelini;7;3;24;5;2;6.900.000
48;Bridgerock;8;6;32;7;5;7.000.000
48;Hancock;8;2;12;1;1;6.600.000
48;Contimental;7;1;38;8;8;2.300.000
48;Avonn;2;3;23;8;3;1.200.000
49;Pipirelli;3;2;34;1;7;250.000
49;Yokomama;4;4;25;3;4;1.500.000
49;Dunnolop;5;3;19;4;5;2.200.000
49;Badyear;4;8;18;7;6;3.600.000
49;Michelini;7;3;24;5;2;6.900.000
49;Bridgerock;8;6;32;7;5;7.000.000
49;Hancock;8;2;12;1;1;6.250.000
49;Contimental;7;1;38;8;8;2.300.000
49;Avonn;2;3;23;8;3;1.200.000
50;Pipirelli;3;2;34;1;7;250.000
50;Yokomama;4;4;25;3;4;1.500.000
50;Dunnolop;5;3;19;4;5;2.200.000
50;Badyear;4;8;18;7;6;3.600.000
50;Michelini;7;3;24;5;2;6.900.000
50;Bridgerock;8;6;32;7;5;7.000.000
50;Hancock;8;2;12;1;1;6.100.000
50;Contimental;7;1;38;8;8;2.300.000
50;Avonn;2;3;23;8;3;1.200.000
51;Pipirelli;3;2;34;1;7;250.000
51;Yokomama;4;4;25;3;4;1.500.000
51;Dunnolop;5;3;19;4;5;2.200.000
51;Badyear;4;8;18;7;6;3.400.000
51;Michelini;7;3;24;5;2;6.900.000
51;Bridgerock;8;6;32;7;5;7.000.000
51;Hancock;8;2;12;1;1;5.900.000
51;Contimental;7;1;38;8;8;2.400.000
51;Avonn;2;3;23;8;3;1.200.000
52;Pipirelli;3;2;34;1;7;250.000
52;Yokomama;4;4;25;3;4;1.500.000
52;Dunnolop;5;3;19;4;5;2.200.000
52;Badyear;4;8;18;7;6;3.400.000
52;Michelini;7;3;24;5;2;6.600.000
52;Bridgerock;8;6;32;7;5;7.000.000
52;Hancock;8;2;12;1;1;5.800.000
52;Contimental;7;1;38;8;8;2.400.000
52;Avonn;2;3;23;8;3;1.200.000
53;Pipirelli;3;2;34;1;7;250.000
53;Yokomama;4;4;25;3;4;1.500.000
53;Dunnolop;5;3;19;4;5;2.200.000
53;Badyear;4;8;18;7;6;3.400.000
53;Michelini;7;3;24;5;2;6.500.000
53;Bridgerock;8;6;32;7;5;7.000.000
53;Hancock;8;2;12;1;1;5.600.000
53;Contimental;7;1;38;8;8;2.400.000
53;Avonn;2;3;23;8;3;1.200.000
54;Pipirelli;3;2;34;1;7;250.000
54;Yokomama;4;4;25;3;4;1.500.000
54;Dunnolop;5;3;19;4;5;2.200.000
54;Badyear;4;8;18;7;6;3.400.000
54;Michelini;7;3;24;5;2;6.000.000
54;Bridgerock;8;6;32;7;5;7.500.000
54;Hancock;8;2;12;1;1;5.600.000
54;Contimental;7;1;38;8;8;2.400.000
54;Avonn;2;3;23;8;3;1.200.000
55;Pipirelli;3;2;34;1;7;250.000
55;Yokomama;4;4;25;3;4;1.500.000
55;Dunnolop;5;3;19;4;5;2.200.000
55;Badyear;4;8;18;7;6;3.400.000
55;Michelini;7;3;24;5;2;6.000.000
55;Bridgerock;8;6;32;7;5;7.500.000
55;Hancock;8;2;12;1;1;5.600.000
55;Contimental;7;1;38;8;8;2.400.000
55;Avonn;2;3;23;8;3;1.200.000
56;Pipirelli;3;2;34;1;7;250.000
56;Yokomama;4;4;25;3;4;1.500.000
56;Dunnolop;5;3;19;4;5;2.200.000
56;Badyear;4;8;18;7;6;3.400.000
56;Michelini;7;3;24;5;2;6.000.000
56;Bridgerock;8;6;32;7;5;8.000.000
56;Hancock;8;2;12;1;1;5.600.000
56;Contimental;7;1;38;8;8;2.400.000
56;Avonn;2;3;23;8;3;1.200.000
57;Pipirelli;3;2;34;1;7;250.000
57;Yokomama;4;4;25;3;4;1.500.000
57;Dunnolop;5;3;19;4;5;2.200.000
57;Badyear;4;8;18;7;6;3.400.000
57;Michelini;7;3;24;5;2;6.000.000
57;Bridgerock;8;6;32;7;5;8.200.000
57;Hancock;8;2;12;1;1;5.600.000
57;Contimental;7;1;38;8;8;2.400.000
57;Avonn;2;3;23;8;3;1.200.000
58;Pipirelli;3;2;34;1;7;250.000
58;Yokomama;4;4;25;3;4;1.500.000
58;Dunnolop;5;3;19;4;5;2.200.000
58;Badyear;4;8;18;7;6;3.400.000
58;Michelini;7;3;24;5;2;6.000.000
58;Bridgerock;8;6;32;7;5;8.200.000
58;Hancock;8;2;12;1;1;5.600.000
58;Contimental;7;1;38;8;8;2.400.000
58;Avonn;2;3;23;8;3;1.200.000
59;Pipirelli;3;2;34;1;7;250.000
59;Yokomama;4;4;25;3;4;1.500.000
59;Dunnolop;5;3;19;4;5;2.200.000
59;Badyear;4;8;18;7;6;3.400.000
59;Michelini;7;3;24;5;2;6.000.000
59;Bridgerock;8;6;32;7;5;8.200.000
59;Hancock;8;2;12;1;1;5.600.000
59;Contimental;7;1;38;8;8;2.400.000
59;Avonn;2;3;23;8;3;1.200.000
60;Pipirelli;3;2;34;1;7;250.000
60;Yokomama;4;4;25;3;4;1.500.000
60;Dunnolop;5;3;19;4;5;2.200.000
60;Badyear;4;8;18;7;6;3.400.000
60;Michelini;7;3;24;5;2;6.000.000
60;Bridgerock;8;6;32;7;5;8.200.000
60;Hancock;8;2;12;1;1;5.600.000
60;Contimental;7;1;38;8;8;2.400.000
60;Avonn;2;3;23;8;3;1.200.000
61;Pipirelli;3;2;34;1;7;250.000
61;Yokomama;4;4;25;3;4;1.500.000
61;Dunnolop;5;3;19;4;5;2.700.000
61;Badyear;4;8;18;7;6;3.400.000
61;Michelini;7;3;24;5;2;6.000.000
61;Bridgerock;8;6;32;7;5;8.200.000
61;Hancock;8;2;12;1;1;5.600.000
61;Contimental;7;1;38;8;8;2.400.000
61;Avonn;2;3;23;8;3;1.200.000
62;Pipirelli;3;2;34;1;7;250.000
62;Yokomama;4;4;27;3;4;1.500.000
62;Dunnolop;5;3;21;4;5;2.700.000
62;Badyear;4;8;18;7;6;3.400.000
62;Michelini;7;3;24;5;2;6.000.000
62;Bridgerock;8;6;32;7;5;8.400.000
62;Hancock;8;2;12;1;1;5.600.000
62;Contimental;7;1;38;8;8;2.400.000
62;Avonn;2;3;14;8;3;1.200.000
63;Pipirelli;3;2;34;1;7;250.000
63;Yokomama;4;4;27;3;4;1.500.000
63;Dunnolop;5;3;21;4;5;2.700.000
63;Badyear;4;8;18;7;6;3.400.000
63;Michelini;7;3;24;5;2;6.000.000
63;Bridgerock;8;6;32;7;5;8.400.000
63;Hancock;8;2;12;1;1;5.600.000
63;Contimental;7;1;38;8;8;2.400.000
63;Avonn;2;3;14;8;3;1.200.000